{
  "name": "todo",
  "base": "PersistedModel",
  "idInjection": true,
  "options": {
    "validateUpsert": true
  },
  "properties": {
    "title": {
      "type": "string",
      "required": true
    },
    "action": {
      "type": "string",
      "required": true,
      "default": "WORK"
    },
    "date": {
      "type": "string",
      "required": true
    },
    "desc": {
      "type": "string",
      "required": true
    }
  },
  "validations": [],
  "relations": {},
  "acls": [],
  "methods": {}
}
